Index Pulse_V V I W3 W4 Spot1_V Spot1_A Spot2_V Spot2_A Scale_Ch1 Scale_Ch2 Scale_Ch3 Scale_Ch4
0001 1.0000e+02 4.8522e+01 2.0968e+00 3.6680e-02 0.0000e+00 0.000e+00 0.000e+00 0.000e+00 0.000e+00 0.5 0 0.2 0
0002 1.0000e+02 4.8246e+01 2.0995e+00 4.7237e-02 0.0000e+00 0.000e+00 0.000e+00 0.000e+00 0.000e+00 0.5 0 0.2 0
0003 1.0000e+02 4.8330e+01 2.0915e+00 4.8855e-02 0.0000e+00 0.000e+00 0.000e+00 0.000e+00 0.000e+00 0.5 0 0.2 0
0004 1.0000e+02 4.8289e+01 2.0949e+00 4.3751e-02 0.0000e+00 0.000e+00 0.000e+00 0.000e+00 0.000e+00 0.5 0 0.2 0
0005 1.0000e+02 4.8737e+01 2.1033e+00 3.7785e-02 0.0000e+00 0.000e+00 0.000e+00 0.000e+00 0.000e+00 0.5 0 0.2 0
0006 1.0000e+02 4.7684e+01 2.0872e+00 4.7053e-02 0.0000e+00 0.000e+00 0.000e+00 0.000e+00 0.000e+00 0.5 0 0.2 0
0007 1.0000e+02 4.7877e+01 2.0947e+00 4.6944e-02 0.0000e+00 0.000e+00 0.000e+00 0.000e+00 0.000e+00 0.5 0 0.2 0
0008 1.0000e+02 4.8957e+01 2.0862e+00 4.4666e-02 0.0000e+00 0.000e+00 0.000e+00 0.000e+00 0.000e+00 0.5 0 0.2 0
0009 1.0000e+02 4.8686e+01 2.1000e+00 4.2011e-02 0.0000e+00 0.000e+00 0.000e+00 0.000e+00 0.000e+00 0.5 0 0.2 0
0010 1.0000e+02 5.0067e+01 2.1014e+00 4.1688e-02 0.0000e+00 0.000e+00 0.000e+00 0.000e+00 0.000e+00 0.5 0 0.2 0
0011 1.0000e+02 4.8353e+01 2.1120e+00 5.4156e-02 0.0000e+00 0.000e+00 0.000e+00 0.000e+00 0.000e+00 0.5 0 0.2 0
0012 1.0000e+02 4.8017e+01 2.1013e+00 5.2580e-02 0.0000e+00 0.000e+00 0.000e+00 0.000e+00 0.000e+00 0.5 0 0.2 0
0013 1.0000e+02 4.8228e+01 2.0847e+00 3.7803e-02 0.0000e+00 0.000e+00 0.000e+00 0.000e+00 0.000e+00 0.5 0 0.2 0
0014 1.0000e+02 4.8724e+01 2.0966e+00 4.5133e-02 0.0000e+00 0.000e+00 0.000e+00 0.000e+00 0.000e+00 0.5 0 0.2 0
0015 1.0000e+02 4.8625e+01 2.1098e+00 4.7432e-02 0.0000e+00 0.000e+00 0.000e+00 0.000e+00 0.000e+00 0.5 0 0.2 0
0016 1.0000e+02 4.8824e+01 2.0929e+00 4.1179e-02 0.0000e+00 0.000e+00 0.000e+00 0.000e+00 0.000e+00 0.5 0 0.2 0
