Software Version,2.0.1.150
Save Path,E:\Mess-Projekte\Friedrich\22_03_18 Antennen TLP Verifikation\Vivaldi_PCB_vs_Metal_25cm\1V\10ns_5ns_pos
Save Date (ISO),2022-03-18 18:19:33
Pulse Generator,HPPI TLP-8010C, S/N: 3650770324

Pulse Shape,10ns
Rise Time,5ns
Oscilloscope Model,KEYSIGHT TECHNOLOGIES,UXR0334A,MY59120115,11.25.00202

Oscilloscope Ch1 Position,-3
Oscilloscope Ch1 Deskew,-8.95199e-09
Oscilloscope Ch2 Position,-3
Oscilloscope Ch2 Deskew,1.36992e-09
Oscilloscope Ch3 Position,-1
Oscilloscope Ch3 Deskew,-8.85786e-09
Oscilloscope Ch4 Position,-3
Oscilloscope Ch4 Deskew,-8.95199e-09

V Channel,1
I Channel,1
W3 Channel,4
W4 Channel,0

V Factor,180
I Factor,3.6
W3 Factor,1
W4 Factor,1

Avg. Interval V Start,6
Avg. Interval V Stop,8
Avg. Interval I Start,6
Avg. Interval I Stop,8
Avg. Interval W3 Start,6
Avg. Interval W3 Stop,8
Avg. Interval W4 Start,6
Avg. Interval W4 Stop,8

Shunt Resistance,2200
Series Resistance,0
Shunt/Series R Corrected Wfms,1
2-Ch Kelvin,0

Sourcemeter Model,
Spot1 Value,0.2V
Spot2 Value,0.2V
Spot1 Compliance,0.0001
Spot2 Compliance,0.0001
Sourcemeter Settling Time,0.05
Sourcemeter Integration Time,1
Spot1 Limit Max,1e-05
Spot1 Limit Min,0
Spot2 Limit Max,1e-05
Spot2 Limit Min,0

Operator,
Technology,
Fab,
Test Chip,
Lot,
Wafer,
Die,
Module,
Device Name,
Device Number,
Pulse Pin,
Gnd Pin,
Bias Pin,
Comments,


Index,Pulse [V],DUT [V],DUT [A],W3 [V],W1 [V],W4 [V],Spot1 [V],Spot1 [A],Spot2 [V],Spot2 [A]
1,1,0.290514,0.0152267,0.00122751,0.290514,0,0,0,0,0
2,1,0.284212,0.0152944,0.000787617,0.284212,0,0,0,0,0
3,1,0.306449,0.0154299,0.00176609,0.306449,0,0,0,0,0
4,1,0.273225,0.0158341,0.00164926,0.273225,0,0,0,0,0
5,1,0.250643,0.0150814,0.00158441,0.250643,0,0,0,0,0
6,1,0.289156,0.0150867,0.00181359,0.289156,0,0,0,0,0
