Index Pulse_V V I W3 W4 Spot1_V Spot1_A Spot2_V Spot2_A Scale_Ch1 Scale_Ch2 Scale_Ch3 Scale_Ch4
0001 -1.0000e+01 -2.3669e-01 -1.9177e-01 -9.0901e-03 0.0000e+00 0.000e+00 0.000e+00 0.000e+00 0.000e+00 0.01 0 0 0.1
0002 -1.0000e+01 -2.1382e-01 -1.9143e-01 -8.0644e-03 0.0000e+00 0.000e+00 0.000e+00 0.000e+00 0.000e+00 0.01 0 0 0.1
0003 -1.0000e+01 -2.9671e-01 -1.9097e-01 -8.6288e-03 0.0000e+00 0.000e+00 0.000e+00 0.000e+00 0.000e+00 0.01 0 0 0.1
0004 -1.0000e+01 -2.8356e-01 -1.9192e-01 -6.5049e-03 0.0000e+00 0.000e+00 0.000e+00 0.000e+00 0.000e+00 0.01 0 0 0.1
0005 -1.0000e+01 -2.3745e-01 -1.9099e-01 -8.0679e-03 0.0000e+00 0.000e+00 0.000e+00 0.000e+00 0.000e+00 0.01 0 0 0.1
0006 -1.0000e+01 -2.5054e-01 -1.9075e-01 -9.3671e-03 0.0000e+00 0.000e+00 0.000e+00 0.000e+00 0.000e+00 0.01 0 0 0.1
0007 -1.0000e+01 -2.3327e-01 -1.9076e-01 -8.3356e-03 0.0000e+00 0.000e+00 0.000e+00 0.000e+00 0.000e+00 0.01 0 0 0.1
0008 -1.0000e+01 -2.5303e-01 -1.9082e-01 -1.0073e-02 0.0000e+00 0.000e+00 0.000e+00 0.000e+00 0.000e+00 0.01 0 0 0.1
0009 -1.0000e+01 -2.0051e-01 -1.9329e-01 -6.7306e-03 0.0000e+00 0.000e+00 0.000e+00 0.000e+00 0.000e+00 0.01 0 0 0.1
0010 -1.0000e+01 -1.8867e-01 -1.9139e-01 -1.0031e-02 0.0000e+00 0.000e+00 0.000e+00 0.000e+00 0.000e+00 0.01 0 0 0.1
0011 -1.0000e+01 -1.9519e-01 -1.9271e-01 -7.1907e-03 0.0000e+00 0.000e+00 0.000e+00 0.000e+00 0.000e+00 0.01 0 0 0.1
