Index Pulse_V V I W3 W4 Spot1_V Spot1_A Spot2_V Spot2_A Scale_Ch1 Scale_Ch2 Scale_Ch3 Scale_Ch4
0001 1.0000e+01 4.8581e+00 9.4954e-02 8.2867e-03 0.0000e+00 0.000e+00 0.000e+00 0.000e+00 0.000e+00 0.01 0 0 0.1
0002 1.0000e+01 4.8657e+00 9.5102e-02 6.6327e-03 0.0000e+00 0.000e+00 0.000e+00 0.000e+00 0.000e+00 0.01 0 0 0.1
0003 1.0000e+01 4.8548e+00 9.4890e-02 6.6914e-03 0.0000e+00 0.000e+00 0.000e+00 0.000e+00 0.000e+00 0.01 0 0 0.1
0004 1.0000e+01 4.8591e+00 9.4974e-02 7.5632e-03 0.0000e+00 0.000e+00 0.000e+00 0.000e+00 0.000e+00 0.01 0 0 0.1
0005 1.0000e+01 4.9320e+00 9.6398e-02 7.3412e-03 0.0000e+00 0.000e+00 0.000e+00 0.000e+00 0.000e+00 0.01 0 0 0.1
0006 1.0000e+01 4.8669e+00 9.5126e-02 7.4859e-03 0.0000e+00 0.000e+00 0.000e+00 0.000e+00 0.000e+00 0.01 0 0 0.1
0007 1.0000e+01 4.8568e+00 9.4929e-02 7.3734e-03 0.0000e+00 0.000e+00 0.000e+00 0.000e+00 0.000e+00 0.01 0 0 0.1
0008 1.0000e+01 4.9009e+00 9.5790e-02 9.0494e-03 0.0000e+00 0.000e+00 0.000e+00 0.000e+00 0.000e+00 0.01 0 0 0.1
0009 1.0000e+01 4.8828e+00 9.5437e-02 6.4644e-03 0.0000e+00 0.000e+00 0.000e+00 0.000e+00 0.000e+00 0.01 0 0 0.1
0010 1.0000e+01 4.8785e+00 9.5352e-02 7.0099e-03 0.0000e+00 0.000e+00 0.000e+00 0.000e+00 0.000e+00 0.01 0 0 0.1
0011 1.0000e+01 4.9023e+00 9.5817e-02 9.4624e-03 0.0000e+00 0.000e+00 0.000e+00 0.000e+00 0.000e+00 0.01 0 0 0.1
